Introduction to R for Geospatial Data: Data frame Manipulation with dplyr
…
This requires putting mutate() and
group_by() together.

R

dmr |>
  group_by(region) |>
  mutate(mean_kelp_regional = mean(kelp),
         kelp_anomaly_regional = kelp - mean_kelp_regional)

OUTPUT

# A tibble: 1,478 × 17
# Groups:   region [6]
    year region    exposure.code coastal.code latitude longitude depth crust
   <int> <chr>             <int>        <int>    <dbl>     <dbl> <int> <dbl>
 1  2001 York                  4            3     43.1     -70.7     5  60  
 2  2001 York                  4            3     43.3     -70.6     5  75.5
 3  2001 York                  4            3     43.4     -70.4     5  73.5
 4  2001 York                  4            4     43.5     -70.3     5  63.5
 5  2001 York                  4            3     43.5     -70.3     5  72.5
 6  2001 Casco Bay             2            2     43.7     -70.1     5   6.1
 7  2001 Casco Bay             2            2     43.8     -70.0     5  31.5
 8  2001 Casco Bay             3            3     43.8     -69.9     5  31.5
 9  2001 Casco Bay             2            2     43.8     -69.9     5  40.5
10  2001 Casco Bay             2            2     43.8     -69.9     5  53  
# ℹ 1,468 more rows
# ℹ 9 more variables: understory <dbl>, kelp <dbl>, urchin <dbl>, month <int>,
#   day <int>, survey <chr>, site <int>, mean_kelp_regional <dbl>,
#   kelp_anomaly_regional <dbl>
…
