…
This requires putting `mutate()` and `group_by()` together.


```r
dmr |>
  group_by(region) |>
  mutate(mean_kelp_regional = mean(kelp),
         kelp_anomaly_regional = kelp - mean_kelp_regional)
```

```{.output}
# A tibble: 1,478 × 5
# Groups:   region [6]
    year region     kelp mean_kelp_regional kelp_anomaly_regional
   <int> <chr>     <dbl>              <dbl>                 <dbl>
 1  2001 York        1.9               19.4               -17.5  
 2  2001 York        0                 19.4               -19.4  
 3  2001 York       18.5               19.4                -0.876
 4  2001 York        0.6               19.4               -18.8  
 5  2001 York       63.5               19.4                44.1  
 6  2001 Casco Bay  92.5               44.1                48.4  
 7  2001 Casco Bay  59                 44.1                14.9  
 8  2001 Casco Bay   7.7               44.1               -36.4  
 9  2001 Casco Bay  52.5               44.1                 8.35 
10  2001 Casco Bay  29.2               44.1               -14.9  
# ℹ 1,468 more rows
```
…
